{
  "aliases": [
    {"name": "afoo", "definition": "foo -a"},
    {"name": "abar", "definition": "bar -a"}
  ],
  "vars": [
    {"name": "VBAR", "value": "this-is-bar"},
    {"name": "VFOO", "value": "this-is-foo"}
  ]
}
